^D:\PRIVATEDIRECTORYBYMISTERCLASS\INTERESTING\C++\CPPEDUCATION\EXCEPTIONS\EXCEPTIONS.CPP|D:\PRIVATEDIRECTORYBYMISTERCLASS\INTERESTING\C++\CPPEDUCATION\EXCEPTIONS\MATH.CPP|D:\PRIVATEDIRECTORYBYMISTERCLASS\INTERESTING\C++\CPPEDUCATION\EXCEPTIONS\TEXTEXCEPTION.CPP
D:\PRIVATEDIRECTORYBYMISTERCLASS\INTERESTING\C++\CPPEDUCATION\EXCEPTIONS\DEBUG\VC142.PDB
D:\PRIVATEDIRECTORYBYMISTERCLASS\INTERESTING\C++\CPPEDUCATION\EXCEPTIONS\DEBUG\VC142.IDB
D:\PRIVATEDIRECTORYBYMISTERCLASS\INTERESTING\C++\CPPEDUCATION\EXCEPTIONS\DEBUG\TEXTEXCEPTION.OBJ
D:\PRIVATEDIRECTORYBYMISTERCLASS\INTERESTING\C++\CPPEDUCATION\EXCEPTIONS\DEBUG\MATH.OBJ
D:\PRIVATEDIRECTORYBYMISTERCLASS\INTERESTING\C++\CPPEDUCATION\EXCEPTIONS\DEBUG\EXCEPTIONS.OBJ
^D:\PRIVATEDIRECTORYBYMISTERCLASS\INTERESTING\C++\CPPEDUCATION\EXCEPTIONS\MATH.CPP
D:\PRIVATEDIRECTORYBYMISTERCLASS\INTERESTING\C++\CPPEDUCATION\EXCEPTIONS\DEBUG\VC142.PDB
^D:\PRIVATEDIRECTORYBYMISTERCLASS\INTERESTING\C++\CPPEDUCATION\EXCEPTIONS\TEXTEXCEPTION.CPP
D:\PRIVATEDIRECTORYBYMISTERCLASS\INTERESTING\C++\CPPEDUCATION\EXCEPTIONS\DEBUG\VC142.PDB
^D:\PRIVATEDIRECTORYBYMISTERCLASS\INTERESTING\C++\CPPEDUCATION\EXCEPTIONS\EXCEPTIONS.CPP
D:\PRIVATEDIRECTORYBYMISTERCLASS\INTERESTING\C++\CPPEDUCATION\EXCEPTIONS\DEBUG\VC142.PDB
D:\PRIVATEDIRECTORYBYMISTERCLASS\INTERESTING\C++\CPPEDUCATION\EXCEPTIONS\DEBUG\VC142.IDB
D:\PRIVATEDIRECTORYBYMISTERCLASS\INTERESTING\C++\CPPEDUCATION\EXCEPTIONS\DEBUG\EXCEPTIONS.OBJ
