^D:\PRIVATEDIRECTORYBYMISTERCLASS\INTERESTING\C++\CPPEDUCATION\PAIRS\PAIRS.CPP
D:\PRIVATEDIRECTORYBYMISTERCLASS\INTERESTING\C++\CPPEDUCATION\PAIRS\DEBUG\VC142.PDB
D:\PRIVATEDIRECTORYBYMISTERCLASS\INTERESTING\C++\CPPEDUCATION\PAIRS\DEBUG\VC142.IDB
D:\PRIVATEDIRECTORYBYMISTERCLASS\INTERESTING\C++\CPPEDUCATION\PAIRS\DEBUG\PAIRS.OBJ
