^D:\PRIVATEDIRECTORYBYMISTERCLASS\INTERESTING\C++\CPPEDUCATION\TEMPLATES\TARRAY.CPP|D:\PRIVATEDIRECTORYBYMISTERCLASS\INTERESTING\C++\CPPEDUCATION\TEMPLATES\TEMPLATES.CPP
D:\PRIVATEDIRECTORYBYMISTERCLASS\INTERESTING\C++\CPPEDUCATION\TEMPLATES\DEBUG\VC142.PDB
D:\PRIVATEDIRECTORYBYMISTERCLASS\INTERESTING\C++\CPPEDUCATION\TEMPLATES\DEBUG\VC142.IDB
D:\PRIVATEDIRECTORYBYMISTERCLASS\INTERESTING\C++\CPPEDUCATION\TEMPLATES\DEBUG\TEMPLATES.OBJ
D:\PRIVATEDIRECTORYBYMISTERCLASS\INTERESTING\C++\CPPEDUCATION\TEMPLATES\DEBUG\TARRAY.OBJ
^D:\PRIVATEDIRECTORYBYMISTERCLASS\INTERESTING\C++\CPPEDUCATION\TEMPLATES\TARRAY.CPP
D:\PRIVATEDIRECTORYBYMISTERCLASS\INTERESTING\C++\CPPEDUCATION\TEMPLATES\DEBUG\VC142.PDB
^D:\PRIVATEDIRECTORYBYMISTERCLASS\INTERESTING\C++\CPPEDUCATION\TEMPLATES\TEMPLATES.CPP
D:\PRIVATEDIRECTORYBYMISTERCLASS\INTERESTING\C++\CPPEDUCATION\TEMPLATES\DEBUG\VC142.PDB
D:\PRIVATEDIRECTORYBYMISTERCLASS\INTERESTING\C++\CPPEDUCATION\TEMPLATES\DEBUG\VC142.IDB
D:\PRIVATEDIRECTORYBYMISTERCLASS\INTERESTING\C++\CPPEDUCATION\TEMPLATES\DEBUG\TEMPLATES.OBJ
